{"message":{"count":14,"next":"https://open.plantbook.io:443/api/v1/plant/search?alias=Spathiphyllum&limit=10&offset=10","previous":null,"results":[{"pid":"spathiphyllum 'compacto cupido'","display_pid":"Spathiphyllum 'Compacto Cupido'","alias":"spathiphyllum compacto cupido","category":"Araceae, Spathiphyllum"},{"pid":"spathiphyllum 'cosmic cupido'","display_pid":"Spathiphyllum 'Cosmic Cupido'","alias":"spathiphyllum cosmic cupido","category":"Araceae, Spathiphyllum"},{"pid":"spathiphyllum 'figaro'","display_pid":"Spathiphyllum 'Figaro'","alias":"spathiphyllum figaro","category":"Araceae, Spathiphyllum"},{"pid":"spathiphyllum 'gold cupido'","display_pid":"Spathiphyllum 'Gold Cupido'","alias":"spathiphyllum gold cupido","category":"Araceae, Spathiphyllum"},{"pid":"spathiphyllum 'pearl cupido'","display_pid":"Spathiphyllum 'Pearl Cupido'","alias":"spathiphyllum kochii","category":"Araceae, Spathiphyllum"},{"pid":"spathiphyllum 'pronto cupido'","display_pid":"Spathiphyllum 'Pronto Cupido'","alias":"spathiphyllum kochii","category":"Araceae, Spathiphyllum"},{"pid":"spathiphyllum 'rocky cupido'","display_pid":"Spathiphyllum 'Rocky Cupido'","alias":"spathiphyllum kochii","category":"Araceae, Spathiphyllum"},{"pid":"spathiphyllum 'silver cupido'","display_pid":"Spathiphyllum 'Silver Cupido'","alias":"spathiphyllum silver cupido","category":"Araceae, Spathiphyllum"},{"pid":"spathiphyllum 'bingo cupido'","display_pid":"Spathiphyllum 'Bingo Cupido'","alias":"spathiphyllum bingo cupido","category":"Araceae, Spathiphyllum"},{"pid":"spathiphyllum 'coco cupido'","display_pid":"Spathiphyllum 'Coco Cupido'","alias":"spathiphyllum coco cupido","category":"Araceae, Spathiphyllum"}]}}